simulacao_mips_final.vcd
$date
     May 03, 2026       18:12:28
$end

$version
 SystemC 2.3.3-Accellera --- Apr 21 2026 18:17:22
$end

$timescale
     1 ps
$end

$scope module SystemC $end
$var wire    1  aaaaa  1_Clock       $end
$var wire   32  aaaab  2_IF_Instrucao [31:0]  $end
$var wire    5  aaaac  3_ID_RS [4:0]  $end
$var wire    5  aaaad  4_ID_RT [4:0]  $end
$var wire   32  aaaae  5_EX_Resultado_ULA [31:0]  $end
$var wire   32  aaaaf  6_WB_Dado_Escrito [31:0]  $end
$var wire    5  aaaag  7_WB_Reg_Destino [4:0]  $end
$upscope $end
$enddefinitions  $end

$comment
All initial values are dumped below at time 0 sec = 0 timescale units.
$end

$dumpvars
1aaaaa
b100000000000010000000000000101 aaaab
b0 aaaac
b1 aaaad
b0 aaaae
b0 aaaaf
b0 aaaag
$end

#5000
0aaaaa

#10000
1aaaaa
b101 aaaae

#15000
0aaaaa

#20000
1aaaaa
b100000000000100000000000000011 aaaab
b10 aaaad

#25000
0aaaaa

#30000
1aaaaa
b0 aaaab
b0 aaaad
b11 aaaae
b101 aaaaf
b1 aaaag

#35000
0aaaaa

#40000
1aaaaa
b0 aaaae

#45000
0aaaaa

#50000
1aaaaa
b11 aaaaf
b10 aaaag

#55000
0aaaaa

#60000
1aaaaa
b1000100001100000100000 aaaab
b1 aaaac
b10 aaaad
b0 aaaaf
b0 aaaag

#65000
0aaaaa

#70000
1aaaaa
b0 aaaab
b0 aaaac
b0 aaaad
b1000 aaaae

#75000
0aaaaa

#80000
1aaaaa
b0 aaaae

#85000
0aaaaa

#90000
1aaaaa
b1000 aaaaf
b11 aaaag

#95000
0aaaaa

#100000
1aaaaa
b11000100010000000100010 aaaab
b11 aaaac
b10 aaaad
b0 aaaaf
b0 aaaag

#105000
0aaaaa

#110000
1aaaaa
b0 aaaab
b0 aaaac
b0 aaaad
b101 aaaae

#115000
0aaaaa

#120000
1aaaaa
b0 aaaae

#125000
0aaaaa

#130000
1aaaaa
b101 aaaaf
b100 aaaag

#135000
0aaaaa

#140000
1aaaaa
b0 aaaaf
b0 aaaag

