waves/alu_waves.vcd
$date
     Apr 22, 2026       04:06:54
$end

$version
 SystemC 3.0.2-Accellera --- Apr 21 2026 13:36:10
$end

$timescale
     1 ps
$end

$scope module SystemC $end
$var wire   16  aaaaa  operand_a [15:0]  $end
$var wire   16  aaaab  operand_b [15:0]  $end
$var wire    4  aaaac  opcode [3:0]  $end
$var wire   16  aaaad  result [15:0]  $end
$var wire    1  aaaae  negative_flag       $end
$var wire    1  aaaaf  zero_flag       $end
$upscope $end
$enddefinitions  $end

$comment
All initial values are dumped below at time 0 sec = 0 timescale units.
$end

$dumpvars
b1111111111111111 aaaaa
b1010101010101010 aaaab
b0 aaaac
b1010101010101010 aaaad
1aaaae
0aaaaf
$end

#1000
b1001000110100 aaaaa
b11111111 aaaab
b110100 aaaad
0aaaae

#2000
b0 aaaaa
b1111111111111111 aaaab
b0 aaaad
1aaaaf

#3000
b1111000011110000 aaaaa
b111100001111 aaaab
b1 aaaac
b1111111111111111 aaaad
1aaaae
0aaaaf

#4000
b0 aaaaa
b0 aaaab
b0 aaaad
0aaaae
1aaaaf

#5000
b1010101010101010 aaaaa
b101010101010101 aaaab
b10 aaaac
b1111111111111111 aaaad
1aaaae
0aaaaf

#6000
b1001000110100 aaaaa
b1001000110100 aaaab
b0 aaaad
0aaaae
1aaaaf

#7000
b1010101010101010 aaaaa
b0 aaaab
b11 aaaac
b101010101010101 aaaad
0aaaaf

#8000
b0 aaaaa
b1111111111111111 aaaad
1aaaae

#9000
b1111111111111111 aaaaa
b0 aaaad
0aaaae
1aaaaf

#10000
b101 aaaaa
b11 aaaab
b100 aaaac
b10 aaaad
0aaaaf

#11000
b11 aaaaa
b101 aaaab
b1111111111111110 aaaad
1aaaae

#12000
b101 aaaaa
b0 aaaad
0aaaae
1aaaaf

#13000
b10 aaaaa
b11 aaaab
b101 aaaac
b101 aaaad
0aaaaf

#14000
b111111111111111 aaaaa
b1 aaaab
b1000000000000000 aaaad
1aaaae

#15000
b1111111111111111 aaaaa
b0 aaaad
0aaaae
1aaaaf

#16000
b101 aaaaa
b10 aaaab
b110 aaaac
b11 aaaad
0aaaaf

#17000
b1 aaaaa
b1111111111111111 aaaad
1aaaae

#18000
b0 aaaaa
b0 aaaab
b0 aaaad
0aaaae
1aaaaf

