waves/imem_waves.vcd
$date
     Apr 21, 2026       23:40:02
$end

$version
 SystemC 3.0.2-Accellera --- Apr 21 2026 13:36:10
$end

$timescale
     1 ps
$end

$scope module SystemC $end
$var wire    8  aaaaa  address [7:0]  $end
$var wire   16  aaaab  instruction [15:0]  $end
$upscope $end
$enddefinitions  $end

$comment
All initial values are dumped below at time 0 sec = 0 timescale units.
$end

$dumpvars
b0 aaaaa
b0 aaaab
$end

#1000
b11111111 aaaaa
b1111111111111111 aaaab

#2000
b1000010 aaaaa
b1001000110100 aaaab

#3000
b10101011 aaaaa
b1010101111001101 aaaab

#4000
b1 aaaaa
b1000000000001 aaaab

#5000
b10000 aaaaa
b1000000010000 aaaab

#6000
b100000 aaaaa
b1000000100000 aaaab

#7000
b1111111 aaaaa
b1000001111111 aaaab

#8000
b10000000 aaaaa
b1000010000000 aaaab

#9000
b11111110 aaaaa
b1000011111110 aaaab

#10000
b1010101 aaaaa
b1000001010101 aaaab

#11000
b10101010 aaaaa
b1000010101010 aaaab

#12000
b0 aaaaa
b0 aaaab

#13000
b1 aaaaa
b1000000000001 aaaab

#14000
b10 aaaaa
b1000000000010 aaaab

#15000
b11 aaaaa
b1000000000011 aaaab

#16000
b100 aaaaa
b1000000000100 aaaab

#17000
b101 aaaaa
b1000000000101 aaaab

#18000
b110 aaaaa
b1000000000110 aaaab

#19000
b111 aaaaa
b1000000000111 aaaab

#20000
b1000 aaaaa
b1000000001000 aaaab

#21000
b1001 aaaaa
b1000000001001 aaaab

#22000
b1010 aaaaa
b1000000001010 aaaab

#23000
b1011 aaaaa
b1000000001011 aaaab

#24000
b1100 aaaaa
b1000000001100 aaaab

#25000
b1101 aaaaa
b1000000001101 aaaab

#26000
b1110 aaaaa
b1000000001110 aaaab

#27000
b1111 aaaaa
b1000000001111 aaaab

#28000
b10000 aaaaa
b1000000010000 aaaab

#29000
b10001 aaaaa
b1000000010001 aaaab

#30000
b10010 aaaaa
b1000000010010 aaaab

#31000
b10011 aaaaa
b1000000010011 aaaab

#32000
b10100 aaaaa
b1000000010100 aaaab

#33000
b10101 aaaaa
b1000000010101 aaaab

#34000
b10110 aaaaa
b1000000010110 aaaab

#35000
b10111 aaaaa
b1000000010111 aaaab

#36000
b11000 aaaaa
b1000000011000 aaaab

#37000
b11001 aaaaa
b1000000011001 aaaab

#38000
b11010 aaaaa
b1000000011010 aaaab

#39000
b11011 aaaaa
b1000000011011 aaaab

#40000
b11100 aaaaa
b1000000011100 aaaab

#41000
b11101 aaaaa
b1000000011101 aaaab

#42000
b11110 aaaaa
b1000000011110 aaaab

#43000
b11111 aaaaa
b1000000011111 aaaab

#44000
b100000 aaaaa
b1000000100000 aaaab

#45000
b100001 aaaaa
b1000000100001 aaaab

#46000
b100010 aaaaa
b1000000100010 aaaab

#47000
b100011 aaaaa
b1000000100011 aaaab

#48000
b100100 aaaaa
b1000000100100 aaaab

#49000
b100101 aaaaa
b1000000100101 aaaab

#50000
b100110 aaaaa
b1000000100110 aaaab

#51000
b100111 aaaaa
b1000000100111 aaaab

#52000
b101000 aaaaa
b1000000101000 aaaab

#53000
b101001 aaaaa
b1000000101001 aaaab

#54000
b101010 aaaaa
b1000000101010 aaaab

#55000
b101011 aaaaa
b1000000101011 aaaab

#56000
b101100 aaaaa
b1000000101100 aaaab

#57000
b101101 aaaaa
b1000000101101 aaaab

#58000
b101110 aaaaa
b1000000101110 aaaab

#59000
b101111 aaaaa
b1000000101111 aaaab

#60000
b110000 aaaaa
b1000000110000 aaaab

#61000
b110001 aaaaa
b1000000110001 aaaab

#62000
b110010 aaaaa
b1000000110010 aaaab

#63000
b110011 aaaaa
b1000000110011 aaaab

#64000
b110100 aaaaa
b1000000110100 aaaab

#65000
b110101 aaaaa
b1000000110101 aaaab

#66000
b110110 aaaaa
b1000000110110 aaaab

#67000
b110111 aaaaa
b1000000110111 aaaab

#68000
b111000 aaaaa
b1000000111000 aaaab

#69000
b111001 aaaaa
b1000000111001 aaaab

#70000
b111010 aaaaa
b1000000111010 aaaab

#71000
b111011 aaaaa
b1000000111011 aaaab

#72000
b111100 aaaaa
b1000000111100 aaaab

#73000
b111101 aaaaa
b1000000111101 aaaab

#74000
b111110 aaaaa
b1000000111110 aaaab

#75000
b111111 aaaaa
b1000000111111 aaaab

#76000
b1000000 aaaaa
b1000001000000 aaaab

#77000
b1000001 aaaaa
b1000001000001 aaaab

#78000
b1000010 aaaaa
b1001000110100 aaaab

#79000
b1000011 aaaaa
b1000001000011 aaaab

#80000
b1000100 aaaaa
b1000001000100 aaaab

#81000
b1000101 aaaaa
b1000001000101 aaaab

#82000
b1000110 aaaaa
b1000001000110 aaaab

#83000
b1000111 aaaaa
b1000001000111 aaaab

#84000
b1001000 aaaaa
b1000001001000 aaaab

#85000
b1001001 aaaaa
b1000001001001 aaaab

#86000
b1001010 aaaaa
b1000001001010 aaaab

#87000
b1001011 aaaaa
b1000001001011 aaaab

#88000
b1001100 aaaaa
b1000001001100 aaaab

#89000
b1001101 aaaaa
b1000001001101 aaaab

#90000
b1001110 aaaaa
b1000001001110 aaaab

#91000
b1001111 aaaaa
b1000001001111 aaaab

#92000
b1010000 aaaaa
b1000001010000 aaaab

#93000
b1010001 aaaaa
b1000001010001 aaaab

#94000
b1010010 aaaaa
b1000001010010 aaaab

#95000
b1010011 aaaaa
b1000001010011 aaaab

#96000
b1010100 aaaaa
b1000001010100 aaaab

#97000
b1010101 aaaaa
b1000001010101 aaaab

#98000
b1010110 aaaaa
b1000001010110 aaaab

#99000
b1010111 aaaaa
b1000001010111 aaaab

#100000
b1011000 aaaaa
b1000001011000 aaaab

#101000
b1011001 aaaaa
b1000001011001 aaaab

#102000
b1011010 aaaaa
b1000001011010 aaaab

#103000
b1011011 aaaaa
b1000001011011 aaaab

#104000
b1011100 aaaaa
b1000001011100 aaaab

#105000
b1011101 aaaaa
b1000001011101 aaaab

#106000
b1011110 aaaaa
b1000001011110 aaaab

#107000
b1011111 aaaaa
b1000001011111 aaaab

#108000
b1100000 aaaaa
b1000001100000 aaaab

#109000
b1100001 aaaaa
b1000001100001 aaaab

#110000
b1100010 aaaaa
b1000001100010 aaaab

#111000
b1100011 aaaaa
b1000001100011 aaaab

#112000
b1100100 aaaaa
b1000001100100 aaaab

#113000
b1100101 aaaaa
b1000001100101 aaaab

#114000
b1100110 aaaaa
b1000001100110 aaaab

#115000
b1100111 aaaaa
b1000001100111 aaaab

#116000
b1101000 aaaaa
b1000001101000 aaaab

#117000
b1101001 aaaaa
b1000001101001 aaaab

#118000
b1101010 aaaaa
b1000001101010 aaaab

#119000
b1101011 aaaaa
b1000001101011 aaaab

#120000
b1101100 aaaaa
b1000001101100 aaaab

#121000
b1101101 aaaaa
b1000001101101 aaaab

#122000
b1101110 aaaaa
b1000001101110 aaaab

#123000
b1101111 aaaaa
b1000001101111 aaaab

#124000
b1110000 aaaaa
b1000001110000 aaaab

#125000
b1110001 aaaaa
b1000001110001 aaaab

#126000
b1110010 aaaaa
b1000001110010 aaaab

#127000
b1110011 aaaaa
b1000001110011 aaaab

#128000
b1110100 aaaaa
b1000001110100 aaaab

#129000
b1110101 aaaaa
b1000001110101 aaaab

#130000
b1110110 aaaaa
b1000001110110 aaaab

#131000
b1110111 aaaaa
b1000001110111 aaaab

#132000
b1111000 aaaaa
b1000001111000 aaaab

#133000
b1111001 aaaaa
b1000001111001 aaaab

#134000
b1111010 aaaaa
b1000001111010 aaaab

#135000
b1111011 aaaaa
b1000001111011 aaaab

#136000
b1111100 aaaaa
b1000001111100 aaaab

#137000
b1111101 aaaaa
b1000001111101 aaaab

#138000
b1111110 aaaaa
b1000001111110 aaaab

#139000
b1111111 aaaaa
b1000001111111 aaaab

#140000
b10000000 aaaaa
b1000010000000 aaaab

#141000
b10000001 aaaaa
b1000010000001 aaaab

#142000
b10000010 aaaaa
b1000010000010 aaaab

#143000
b10000011 aaaaa
b1000010000011 aaaab

#144000
b10000100 aaaaa
b1000010000100 aaaab

#145000
b10000101 aaaaa
b1000010000101 aaaab

#146000
b10000110 aaaaa
b1000010000110 aaaab

#147000
b10000111 aaaaa
b1000010000111 aaaab

#148000
b10001000 aaaaa
b1000010001000 aaaab

#149000
b10001001 aaaaa
b1000010001001 aaaab

#150000
b10001010 aaaaa
b1000010001010 aaaab

#151000
b10001011 aaaaa
b1000010001011 aaaab

#152000
b10001100 aaaaa
b1000010001100 aaaab

#153000
b10001101 aaaaa
b1000010001101 aaaab

#154000
b10001110 aaaaa
b1000010001110 aaaab

#155000
b10001111 aaaaa
b1000010001111 aaaab

#156000
b10010000 aaaaa
b1000010010000 aaaab

#157000
b10010001 aaaaa
b1000010010001 aaaab

#158000
b10010010 aaaaa
b1000010010010 aaaab

#159000
b10010011 aaaaa
b1000010010011 aaaab

#160000
b10010100 aaaaa
b1000010010100 aaaab

#161000
b10010101 aaaaa
b1000010010101 aaaab

#162000
b10010110 aaaaa
b1000010010110 aaaab

#163000
b10010111 aaaaa
b1000010010111 aaaab

#164000
b10011000 aaaaa
b1000010011000 aaaab

#165000
b10011001 aaaaa
b1000010011001 aaaab

#166000
b10011010 aaaaa
b1000010011010 aaaab

#167000
b10011011 aaaaa
b1000010011011 aaaab

#168000
b10011100 aaaaa
b1000010011100 aaaab

#169000
b10011101 aaaaa
b1000010011101 aaaab

#170000
b10011110 aaaaa
b1000010011110 aaaab

#171000
b10011111 aaaaa
b1000010011111 aaaab

#172000
b10100000 aaaaa
b1000010100000 aaaab

#173000
b10100001 aaaaa
b1000010100001 aaaab

#174000
b10100010 aaaaa
b1000010100010 aaaab

#175000
b10100011 aaaaa
b1000010100011 aaaab

#176000
b10100100 aaaaa
b1000010100100 aaaab

#177000
b10100101 aaaaa
b1000010100101 aaaab

#178000
b10100110 aaaaa
b1000010100110 aaaab

#179000
b10100111 aaaaa
b1000010100111 aaaab

#180000
b10101000 aaaaa
b1000010101000 aaaab

#181000
b10101001 aaaaa
b1000010101001 aaaab

#182000
b10101010 aaaaa
b1000010101010 aaaab

#183000
b10101011 aaaaa
b1010101111001101 aaaab

#184000
b10101100 aaaaa
b1000010101100 aaaab

#185000
b10101101 aaaaa
b1000010101101 aaaab

#186000
b10101110 aaaaa
b1000010101110 aaaab

#187000
b10101111 aaaaa
b1000010101111 aaaab

#188000
b10110000 aaaaa
b1000010110000 aaaab

#189000
b10110001 aaaaa
b1000010110001 aaaab

#190000
b10110010 aaaaa
b1000010110010 aaaab

#191000
b10110011 aaaaa
b1000010110011 aaaab

#192000
b10110100 aaaaa
b1000010110100 aaaab

#193000
b10110101 aaaaa
b1000010110101 aaaab

#194000
b10110110 aaaaa
b1000010110110 aaaab

#195000
b10110111 aaaaa
b1000010110111 aaaab

#196000
b10111000 aaaaa
b1000010111000 aaaab

#197000
b10111001 aaaaa
b1000010111001 aaaab

#198000
b10111010 aaaaa
b1000010111010 aaaab

#199000
b10111011 aaaaa
b1000010111011 aaaab

#200000
b10111100 aaaaa
b1000010111100 aaaab

#201000
b10111101 aaaaa
b1000010111101 aaaab

#202000
b10111110 aaaaa
b1000010111110 aaaab

#203000
b10111111 aaaaa
b1000010111111 aaaab

#204000
b11000000 aaaaa
b1000011000000 aaaab

#205000
b11000001 aaaaa
b1000011000001 aaaab

#206000
b11000010 aaaaa
b1000011000010 aaaab

#207000
b11000011 aaaaa
b1000011000011 aaaab

#208000
b11000100 aaaaa
b1000011000100 aaaab

#209000
b11000101 aaaaa
b1000011000101 aaaab

#210000
b11000110 aaaaa
b1000011000110 aaaab

#211000
b11000111 aaaaa
b1000011000111 aaaab

#212000
b11001000 aaaaa
b1000011001000 aaaab

#213000
b11001001 aaaaa
b1000011001001 aaaab

#214000
b11001010 aaaaa
b1000011001010 aaaab

#215000
b11001011 aaaaa
b1000011001011 aaaab

#216000
b11001100 aaaaa
b1000011001100 aaaab

#217000
b11001101 aaaaa
b1000011001101 aaaab

#218000
b11001110 aaaaa
b1000011001110 aaaab

#219000
b11001111 aaaaa
b1000011001111 aaaab

#220000
b11010000 aaaaa
b1000011010000 aaaab

#221000
b11010001 aaaaa
b1000011010001 aaaab

#222000
b11010010 aaaaa
b1000011010010 aaaab

#223000
b11010011 aaaaa
b1000011010011 aaaab

#224000
b11010100 aaaaa
b1000011010100 aaaab

#225000
b11010101 aaaaa
b1000011010101 aaaab

#226000
b11010110 aaaaa
b1000011010110 aaaab

#227000
b11010111 aaaaa
b1000011010111 aaaab

#228000
b11011000 aaaaa
b1000011011000 aaaab

#229000
b11011001 aaaaa
b1000011011001 aaaab

#230000
b11011010 aaaaa
b1000011011010 aaaab

#231000
b11011011 aaaaa
b1000011011011 aaaab

#232000
b11011100 aaaaa
b1000011011100 aaaab

#233000
b11011101 aaaaa
b1000011011101 aaaab

#234000
b11011110 aaaaa
b1000011011110 aaaab

#235000
b11011111 aaaaa
b1000011011111 aaaab

#236000
b11100000 aaaaa
b1000011100000 aaaab

#237000
b11100001 aaaaa
b1000011100001 aaaab

#238000
b11100010 aaaaa
b1000011100010 aaaab

#239000
b11100011 aaaaa
b1000011100011 aaaab

#240000
b11100100 aaaaa
b1000011100100 aaaab

#241000
b11100101 aaaaa
b1000011100101 aaaab

#242000
b11100110 aaaaa
b1000011100110 aaaab

#243000
b11100111 aaaaa
b1000011100111 aaaab

#244000
b11101000 aaaaa
b1000011101000 aaaab

#245000
b11101001 aaaaa
b1000011101001 aaaab

#246000
b11101010 aaaaa
b1000011101010 aaaab

#247000
b11101011 aaaaa
b1000011101011 aaaab

#248000
b11101100 aaaaa
b1000011101100 aaaab

#249000
b11101101 aaaaa
b1000011101101 aaaab

#250000
b11101110 aaaaa
b1000011101110 aaaab

#251000
b11101111 aaaaa
b1000011101111 aaaab

#252000
b11110000 aaaaa
b1000011110000 aaaab

#253000
b11110001 aaaaa
b1000011110001 aaaab

#254000
b11110010 aaaaa
b1000011110010 aaaab

#255000
b11110011 aaaaa
b1000011110011 aaaab

#256000
b11110100 aaaaa
b1000011110100 aaaab

#257000
b11110101 aaaaa
b1000011110101 aaaab

#258000
b11110110 aaaaa
b1000011110110 aaaab

#259000
b11110111 aaaaa
b1000011110111 aaaab

#260000
b11111000 aaaaa
b1000011111000 aaaab

#261000
b11111001 aaaaa
b1000011111001 aaaab

#262000
b11111010 aaaaa
b1000011111010 aaaab

#263000
b11111011 aaaaa
b1000011111011 aaaab

#264000
b11111100 aaaaa
b1000011111100 aaaab

#265000
b11111101 aaaaa
b1000011111101 aaaab

#266000
b11111110 aaaaa
b1000011111110 aaaab

#267000
b11111111 aaaaa
b1111111111111111 aaaab

