waves/pc_waves.vcd
$date
     Apr 21, 2026       23:27:50
$end

$version
 SystemC 3.0.2-Accellera --- Apr 21 2026 13:36:10
$end

$timescale
     1 ps
$end

$scope module SystemC $end
$var wire    1  aaaaa  clk       $end
$var wire    1  aaaab  reset       $end
$var wire    1  aaaac  pc_write       $end
$var wire    8  aaaad  next_pc [7:0]  $end
$var wire    8  aaaae  pc [7:0]  $end
$upscope $end
$enddefinitions  $end

$comment
All initial values are dumped below at time 0 sec = 0 timescale units.
$end

$dumpvars
1aaaaa
0aaaab
0aaaac
b0 aaaad
b0 aaaae
$end

#5000
0aaaaa

#10000
1aaaaa
1aaaab
1aaaac
b10101011 aaaad

#15000
0aaaaa

#20000
1aaaaa

#21000
0aaaac
b11001101 aaaad

#25000
0aaaaa

#30000
1aaaaa

#31000
0aaaab
1aaaac
b1010101 aaaad

#35000
0aaaaa

#40000
1aaaaa
b1010101 aaaae

#41000
b10101010 aaaad

#45000
0aaaaa

#50000
1aaaaa
b10101010 aaaae

#51000
0aaaac
b11111111 aaaad

#55000
0aaaaa

#60000
1aaaaa

#61000
b10001 aaaad

#65000
0aaaaa

#70000
1aaaaa

#71000
1aaaab
1aaaac
b1110111 aaaad

#75000
0aaaaa

#80000
1aaaaa
b0 aaaae

#81000
0aaaab
0aaaac

#85000
0aaaaa

#90000
1aaaaa

#91000
1aaaac
b1000010 aaaad

#95000
0aaaaa

#100000
1aaaaa
b1000010 aaaae

#101000
b1 aaaad

#105000
0aaaaa

#110000
1aaaaa
b1 aaaae

#111000
b10 aaaad

#115000
0aaaaa

#120000
1aaaaa
b10 aaaae

#121000
b11 aaaad

#125000
0aaaaa

#130000
1aaaaa
b11 aaaae

#131000
0aaaac
b11111111 aaaad

#135000
0aaaaa

#140000
1aaaaa

#141000
1aaaab
b0 aaaad

#145000
0aaaaa

#150000
1aaaaa
b0 aaaae

